{
  "webpack": {
    "entry": {
      "user-management": "users/module",
      "facet-management": "facets/module",
      "private-profile": "profile/module",
      "organization-management": "organization/module",
      "plugin-management": "plugins/module",
      "portal": "portal/module",
      "tinymce": "tinymce/tinymce"
    }
  }
}
